-- Author: 	Ryan Bramich
 -- Class:  	CMSC 430 6381
 -- Assignment:	Project 3
 -- File:	.txt
 -- Numb of errors in file: 0 - Lex, 0 - Syn, 0 - Sem
function main a: integer, b: boolean, c: integer, d: integer returns integer;
e: real is 9.;
begin
if ((5 + a > 8 or 9 / 3 = a) or (a - 9 < 1) and (not (a /= 1 * 7) or 6 <= 7 and a >= 9)) then //when a=3 this if statment = true.
reduce + 
	f+g;
	6;
	endreduce; //reduce = 17
else
if((a>1)=true) then
	3+4;
else
if(c>0) then
	case c is
		when 1 => a * c;
		when 2 => a + 5;
		when 3 =>
		case d is
		when 1 => e + 2 - (5 - 1) / 2 % 3 * 3 ^ 1 ** 2; //evaluates to 5;
		others => 19;
		endcase;
		when => a / 2;
		others => a + 4;
		endcase;
else
	h / 5;
endif;
endif;
endif;
end;
